HHR Supply Forecasting
…
Data

fake_data

# A tibble: 26,940 × 8
   phys_id spec_id   age rurality gender fiscal_id entered retired
     <int>   <int> <dbl>    <dbl> <fct>      <int> <lgl>   <lgl>  
 1       1       0    31    0.174 M              1 FALSE   FALSE  
 2       1       0    32    0.174 M              2 FALSE   FALSE  
 3       1       0    33    0.174 M              3 FALSE   FALSE  
 4       1       0    34    0.174 M              4 FALSE   TRUE   
 5       2       0    54    0.560 M              1 FALSE   FALSE  
 6       2       0    55    0.560 M              2 FALSE   FALSE  
 7       2       0    56    0.560 M              3 FALSE   FALSE  
 8       2       0    57    0.560 M              4 FALSE   FALSE  
 9       3       0    51    0.918 M              1 FALSE   FALSE  
10       3       0    52    0.918 M              2 FALSE   FALSE  
# ℹ 26,930 more rows
…
